﻿{
  "pagination": {},
  "data": [
    {
      "id": "1950285035019361572_5742223731",
      "user": {
        "id": "5742223731",
        "full_name": "🙏 GOOD SMILE 🙏",
        "profile_picture": "https://scontent.cdninstagram.com/vp/3cf437a6e8accd8a82f7bdc4412c2040/5CDDB52B/t51.2885-19/s150x150/45803616_912503295615911_2186419592417509376_n.jpg?_nc_ht=scontent.cdninstagram.com",
        "username": "goodsmileofficial"
      },
      "images": {
        "thumbnail": {
          "width": 150,
          "height": 150,
          "url": "https://scontent.cdninstagram.com/vp/37c947f8bfb6a21bf9d63f01a7682454/5CC90635/t51.2885-15/e35/s150x150/47691862_222263405376703_6482919462495849617_n.jpg?_nc_ht=scontent.cdninstagram.com"
        },
        "standard_resolution": {
          "width": 640,
          "height": 640,
          "url": "https://scontent.cdninstagram.com/vp/f07f1523612d70da6f3afbcc4a41b556/5CD11B92/t51.2885-15/sh0.08/e35/s640x640/47691862_222263405376703_6482919462495849617_n.jpg?_nc_ht=scontent.cdninstagram.com"
        },
        "low_resolution": {
          "width": 320,
          "height": 320,
          "url": "https://scontent.cdninstagram.com/vp/2f4b230e88700ab1440d6fdff64d15a2/5CCF85C5/t51.2885-15/e35/s320x320/47691862_222263405376703_6482919462495849617_n.jpg?_nc_ht=scontent.cdninstagram.com"
        }
      },
      "created_time": "1546712115",
      "caption": {
        "id": "18018741043061753",
        "text": "Money \nThis\n Is \nFucking \nPaper \n#music #good #smile #gucci #luxury #louisvuitton #musicdub #dollars #100 \n#money",
        "created_time": "1546712115",
        "from": {
          "id": "5742223731",
          "full_name": "🙏 GOOD SMILE 🙏",
          "profile_picture": "https://scontent.cdninstagram.com/vp/3cf437a6e8accd8a82f7bdc4412c2040/5CDDB52B/t51.2885-19/s150x150/45803616_912503295615911_2186419592417509376_n.jpg?_nc_ht=scontent.cdninstagram.com",
          "username": "goodsmileofficial"
        }
      },
      "user_has_liked": false,
      "likes": {
        "count": 11
      },
      "tags": [
        "musicdub",
        "money",
        "gucci",
        "louisvuitton",
        "dollars",
        "music",
        "luxury",
        "100",
        "good",
        "smile"
      ],
      "filter": "Normal",
      "comments": {
        "count": 1
      },
      "type": "image",
      "link": "https://www.instagram.com/p/BsQzegDFt0k/",
      "location": null,
      "attribution": null,
      "users_in_photo": [
        {
          "user": {
            "username": "goodsmileofficial"
          },
          "position": {
            "x": 0.5053333333,
            "y": 0.5706666667
          }
        }
      ]
    },
    {
      "id": "1932102086600113037_5742223731",
      "user": {
        "id": "5742223731",
        "full_name": "🙏 GOOD SMILE 🙏",
        "profile_picture": "https://scontent.cdninstagram.com/vp/3cf437a6e8accd8a82f7bdc4412c2040/5CDDB52B/t51.2885-19/s150x150/45803616_912503295615911_2186419592417509376_n.jpg?_nc_ht=scontent.cdninstagram.com",
        "username": "goodsmileofficial"
      },
      "images": {
        "thumbnail": {
          "width": 150,
          "height": 150,
          "url": "https://scontent.cdninstagram.com/vp/706b80c1fec0691b66ab0f10a038370c/5CC7249F/t51.2885-15/e35/c135.0.809.809a/s150x150/47586055_1963445167283990_1340199986161629939_n.jpg?_nc_ht=scontent.cdninstagram.com"
        },
        "low_resolution": {
          "width": 320,
          "height": 239,
          "url": "https://scontent.cdninstagram.com/vp/3bb7c7ae29f7c55b11a9835f1acdddf8/5CDE215B/t51.2885-15/e35/s320x320/47586055_1963445167283990_1340199986161629939_n.jpg?_nc_ht=scontent.cdninstagram.com"
        },
        "standard_resolution": {
          "width": 640,
          "height": 479,
          "url": "https://scontent.cdninstagram.com/vp/58b62fe8ec3141ec42ce7271e13482c6/5CCFB9A6/t51.2885-15/sh0.08/e35/s640x640/47586055_1963445167283990_1340199986161629939_n.jpg?_nc_ht=scontent.cdninstagram.com"
        }
      },
      "created_time": "1544544538",
      "caption": {
        "id": "17979625306180301",
        "text": "House Studio By \nGOOD SMILE\nMarry Christmas \nPart 1 \n#recordstudio #studio #music #marrychristmas #recordstudios #good #smile #krk #work",
        "created_time": "1544544538",
        "from": {
          "id": "5742223731",
          "full_name": "🙏 GOOD SMILE 🙏",
          "profile_picture": "https://scontent.cdninstagram.com/vp/3cf437a6e8accd8a82f7bdc4412c2040/5CDDB52B/t51.2885-19/s150x150/45803616_912503295615911_2186419592417509376_n.jpg?_nc_ht=scontent.cdninstagram.com",
          "username": "goodsmileofficial"
        }
      },
      "user_has_liked": false,
      "likes": {
        "count": 16
      },
      "tags": [
        "work",
        "krk",
        "marrychristmas",
        "music",
        "recordstudios",
        "good",
        "smile",
        "recordstudio",
        "studio"
      ],
      "filter": "Normal",
      "comments": {
        "count": 0
      },
      "type": "image",
      "link": "https://www.instagram.com/p/BrQNJxtlzuN/",
      "location": null,
      "attribution": null,
      "users_in_photo": []
    },
    {
      "id": "1925737475445383072_5742223731",
      "user": {
        "id": "5742223731",
        "full_name": "🙏 GOOD SMILE 🙏",
        "profile_picture": "https://scontent.cdninstagram.com/vp/3cf437a6e8accd8a82f7bdc4412c2040/5CDDB52B/t51.2885-19/s150x150/45803616_912503295615911_2186419592417509376_n.jpg?_nc_ht=scontent.cdninstagram.com",
        "username": "goodsmileofficial"
      },
      "images": {
        "thumbnail": {
          "width": 150,
          "height": 150,
          "url": "https://scontent.cdninstagram.com/vp/ff0a8e7e61aad9b6e4c27a70d038dc87/5CB82BCF/t51.2885-15/e35/s150x150/46802498_558495684667507_3096423395461327185_n.jpg?_nc_ht=scontent.cdninstagram.com"
        },
        "low_resolution": {
          "width": 320,
          "height": 320,
          "url": "https://scontent.cdninstagram.com/vp/7745d05cd402cc60c96c844ccb68f961/5CC0AF3F/t51.2885-15/e35/s320x320/46802498_558495684667507_3096423395461327185_n.jpg?_nc_ht=scontent.cdninstagram.com"
        },
        "standard_resolution": {
          "width": 640,
          "height": 640,
          "url": "https://scontent.cdninstagram.com/vp/a00b332c7cec6370f7b1ee5784144328/5CCD9168/t51.2885-15/sh0.08/e35/s640x640/46802498_558495684667507_3096423395461327185_n.jpg?_nc_ht=scontent.cdninstagram.com"
        }
      },
      "created_time": "1543785818",
      "caption": {
        "id": "17990943316104256",
        "text": "GLITCHMORTY \nDesigner: CRAZYF1R3\nRelease: Soon... #art #music #rickymorty #morty #good #smile #trap #dubstep #soon",
        "created_time": "1543785818",
        "from": {
          "id": "5742223731",
          "full_name": "🙏 GOOD SMILE 🙏",
          "profile_picture": "https://scontent.cdninstagram.com/vp/3cf437a6e8accd8a82f7bdc4412c2040/5CDDB52B/t51.2885-19/s150x150/45803616_912503295615911_2186419592417509376_n.jpg?_nc_ht=scontent.cdninstagram.com",
          "username": "goodsmileofficial"
        }
      },
      "user_has_liked": false,
      "likes": {
        "count": 26
      },
      "tags": [
        "trap",
        "morty",
        "soon",
        "rickymorty",
        "music",
        "dubstep",
        "good",
        "smile",
        "art"
      ],
      "filter": "Normal",
      "comments": {
        "count": 0
      },
      "type": "image",
      "link": "https://www.instagram.com/p/Bq5mAfqlF-g/",
      "location": null,
      "attribution": null,
      "users_in_photo": []
    },
    {
      "id": "1911965048966015576_5742223731",
      "user": {
        "id": "5742223731",
        "full_name": "🙏 GOOD SMILE 🙏",
        "profile_picture": "https://scontent.cdninstagram.com/vp/3cf437a6e8accd8a82f7bdc4412c2040/5CDDB52B/t51.2885-19/s150x150/45803616_912503295615911_2186419592417509376_n.jpg?_nc_ht=scontent.cdninstagram.com",
        "username": "goodsmileofficial"
      },
      "images": {
        "thumbnail": {
          "width": 150,
          "height": 150,
          "url": "https://scontent.cdninstagram.com/vp/3ffd6aa89f1f579d0e32b2484a65f6d2/5CB8705F/t51.2885-15/e35/s150x150/44511548_1040805076081363_85018069770225564_n.jpg?_nc_ht=scontent.cdninstagram.com"
        },
        "low_resolution": {
          "width": 320,
          "height": 320,
          "url": "https://scontent.cdninstagram.com/vp/ad7a61cb94d670ed7fd3f86064251b2f/5CC44B52/t51.2885-15/e35/s320x320/44511548_1040805076081363_85018069770225564_n.jpg?_nc_ht=scontent.cdninstagram.com"
        },
        "standard_resolution": {
          "width": 640,
          "height": 640,
          "url": "https://scontent.cdninstagram.com/vp/80c366a8427b1516408d4967958fd639/5CBDE2BE/t51.2885-15/sh0.08/e35/s640x640/44511548_1040805076081363_85018069770225564_n.jpg?_nc_ht=scontent.cdninstagram.com"
        }
      },
      "created_time": "1542144016",
      "caption": {
        "id": "17990080444128359",
        "text": "Snails - Feel The Vibe (Good Smile Remix)\n#kannibalenrecords #snails #good #smile #owsla #monstercat #dubstep #dubstepgutter #tribaltrap #feel #vibe #music",
        "created_time": "1542144016",
        "from": {
          "id": "5742223731",
          "full_name": "🙏 GOOD SMILE 🙏",
          "profile_picture": "https://scontent.cdninstagram.com/vp/3cf437a6e8accd8a82f7bdc4412c2040/5CDDB52B/t51.2885-19/s150x150/45803616_912503295615911_2186419592417509376_n.jpg?_nc_ht=scontent.cdninstagram.com",
          "username": "goodsmileofficial"
        }
      },
      "user_has_liked": false,
      "likes": {
        "count": 31
      },
      "tags": [
        "owsla",
        "vibe",
        "kannibalenrecords",
        "monstercat",
        "snails",
        "tribaltrap",
        "feel",
        "music",
        "dubstep",
        "good",
        "dubstepgutter",
        "smile"
      ],
      "filter": "Normal",
      "comments": {
        "count": 4
      },
      "type": "image",
      "link": "https://www.instagram.com/p/BqIqhT-lOpY/",
      "location": null,
      "attribution": null,
      "users_in_photo": []
    },
    {
      "id": "1910410054169018590_5742223731",
      "user": {
        "id": "5742223731",
        "full_name": "🙏 GOOD SMILE 🙏",
        "profile_picture": "https://scontent.cdninstagram.com/vp/3cf437a6e8accd8a82f7bdc4412c2040/5CDDB52B/t51.2885-19/s150x150/45803616_912503295615911_2186419592417509376_n.jpg?_nc_ht=scontent.cdninstagram.com",
        "username": "goodsmileofficial"
      },
      "images": {
        "thumbnail": {
          "width": 150,
          "height": 150,
          "url": "https://scontent.cdninstagram.com/vp/9d2352d305260dc3fea08af3c96e5334/5CFFE91C/t51.2885-15/e35/s150x150/42736189_919349865120329_7188968402541020424_n.jpg?_nc_ht=scontent.cdninstagram.com"
        },
        "low_resolution": {
          "width": 320,
          "height": 320,
          "url": "https://scontent.cdninstagram.com/vp/d5bca7ca714a2917391edc5428605e89/5CCF3DEC/t51.2885-15/e35/s320x320/42736189_919349865120329_7188968402541020424_n.jpg?_nc_ht=scontent.cdninstagram.com"
        },
        "standard_resolution": {
          "width": 640,
          "height": 640,
          "url": "https://scontent.cdninstagram.com/vp/6b81a0dfabf261163c650b4d47d54f79/5CCB72BB/t51.2885-15/sh0.08/e35/s640x640/42736189_919349865120329_7188968402541020424_n.jpg?_nc_ht=scontent.cdninstagram.com"
        }
      },
      "created_time": "1541958647",
      "caption": {
        "id": "17887576072284682",
        "text": "Good Smile Skull \nI’ve been tryna find\nSearching for my peace of mind\nGoing every night\nI’ve been running every time\nThink I’m 'bout to go insane\nThink my mind gone MIA\nAnd I can’t wait for the day\nThinking about it I don’t rust.\n\n#Skull #good #smile #art",
        "created_time": "1541958647",
        "from": {
          "id": "5742223731",
          "full_name": "🙏 GOOD SMILE 🙏",
          "profile_picture": "https://scontent.cdninstagram.com/vp/3cf437a6e8accd8a82f7bdc4412c2040/5CDDB52B/t51.2885-19/s150x150/45803616_912503295615911_2186419592417509376_n.jpg?_nc_ht=scontent.cdninstagram.com",
          "username": "goodsmileofficial"
        }
      },
      "user_has_liked": false,
      "likes": {
        "count": 10
      },
      "tags": [
        "smile",
        "art",
        "skull",
        "good"
      ],
      "filter": "Normal",
      "comments": {
        "count": 1
      },
      "type": "image",
      "link": "https://www.instagram.com/p/BqDI9KOFEDe/",
      "location": null,
      "attribution": null,
      "users_in_photo": []
    },
    {
      "id": "1865553482402480772_5742223731",
      "user": {
        "id": "5742223731",
        "full_name": "🙏 GOOD SMILE 🙏",
        "profile_picture": "https://scontent.cdninstagram.com/vp/3cf437a6e8accd8a82f7bdc4412c2040/5CDDB52B/t51.2885-19/s150x150/45803616_912503295615911_2186419592417509376_n.jpg?_nc_ht=scontent.cdninstagram.com",
        "username": "goodsmileofficial"
      },
      "images": {
        "thumbnail": {
          "width": 150,
          "height": 150,
          "url": "https://scontent.cdninstagram.com/vp/b0b372c5c02d3a1e0815bd1a52a94d09/5CDA30DA/t51.2885-15/e35/s150x150/40631349_330376337508807_5466443697887913443_n.jpg?_nc_ht=scontent.cdninstagram.com"
        },
        "low_resolution": {
          "width": 320,
          "height": 320,
          "url": "https://scontent.cdninstagram.com/vp/4963502ab33c1e41a522a7cd4a7a2ddd/5CBD3B2A/t51.2885-15/e35/s320x320/40631349_330376337508807_5466443697887913443_n.jpg?_nc_ht=scontent.cdninstagram.com"
        },
        "standard_resolution": {
          "width": 640,
          "height": 640,
          "url": "https://scontent.cdninstagram.com/vp/38641e30b5c6942d0b8f7764ff77f07f/5CCD197D/t51.2885-15/sh0.08/e35/s640x640/40631349_330376337508807_5466443697887913443_n.jpg?_nc_ht=scontent.cdninstagram.com"
        }
      },
      "created_time": "1536611326",
      "caption": {
        "id": "17952409939138726",
        "text": "Italy 🇮🇹 Apprezzo una donna, cos'e è accanto a me. \n#italy #goodtimes #good #smile",
        "created_time": "1536611326",
        "from": {
          "id": "5742223731",
          "full_name": "🙏 GOOD SMILE 🙏",
          "profile_picture": "https://scontent.cdninstagram.com/vp/3cf437a6e8accd8a82f7bdc4412c2040/5CDDB52B/t51.2885-19/s150x150/45803616_912503295615911_2186419592417509376_n.jpg?_nc_ht=scontent.cdninstagram.com",
          "username": "goodsmileofficial"
        }
      },
      "user_has_liked": false,
      "likes": {
        "count": 21
      },
      "tags": [
        "smile",
        "italy",
        "goodtimes",
        "good"
      ],
      "filter": "Normal",
      "comments": {
        "count": 0
      },
      "type": "image",
      "link": "https://www.instagram.com/p/BnjxwIUF8KE/",
      "location": null,
      "attribution": null,
      "users_in_photo": []
    },
    {
      "id": "1853717306015175809_5742223731",
      "user": {
        "id": "5742223731",
        "full_name": "🙏 GOOD SMILE 🙏",
        "profile_picture": "https://scontent.cdninstagram.com/vp/3cf437a6e8accd8a82f7bdc4412c2040/5CDDB52B/t51.2885-19/s150x150/45803616_912503295615911_2186419592417509376_n.jpg?_nc_ht=scontent.cdninstagram.com",
        "username": "goodsmileofficial"
      },
      "images": {
        "thumbnail": {
          "width": 150,
          "height": 150,
          "url": "https://scontent.cdninstagram.com/vp/9ed579c8dd1ff04e4b8123de0f6efa64/5CC3E1A2/t51.2885-15/e35/s150x150/39850972_2156100941313087_4017970746113392640_n.jpg?_nc_ht=scontent.cdninstagram.com"
        },
        "low_resolution": {
          "width": 320,
          "height": 320,
          "url": "https://scontent.cdninstagram.com/vp/fe714b9f20feb20de31f0b8f89761269/5CCA24DA/t51.2885-15/e35/s320x320/39850972_2156100941313087_4017970746113392640_n.jpg?_nc_ht=scontent.cdninstagram.com"
        },
        "standard_resolution": {
          "width": 640,
          "height": 640,
          "url": "https://scontent.cdninstagram.com/vp/0ca9d4e461e8503fb5ae38cbfb0d8529/5CDE3427/t51.2885-15/sh0.08/e35/s640x640/39850972_2156100941313087_4017970746113392640_n.jpg?_nc_ht=scontent.cdninstagram.com"
        }
      },
      "created_time": "1535200344",
      "caption": {
        "id": "17972467483033124",
        "text": "Art \nThe Mouse\nGood Smile \nFuture City\nMusicDub Cult\n\n#future #city #cult #musicdub #mouse #good #smile",
        "created_time": "1535200344",
        "from": {
          "id": "5742223731",
          "full_name": "🙏 GOOD SMILE 🙏",
          "profile_picture": "https://scontent.cdninstagram.com/vp/3cf437a6e8accd8a82f7bdc4412c2040/5CDDB52B/t51.2885-19/s150x150/45803616_912503295615911_2186419592417509376_n.jpg?_nc_ht=scontent.cdninstagram.com",
          "username": "goodsmileofficial"
        }
      },
      "user_has_liked": false,
      "likes": {
        "count": 15
      },
      "tags": [
        "mouse",
        "musicdub",
        "cult",
        "city",
        "good",
        "smile",
        "future"
      ],
      "filter": "Normal",
      "comments": {
        "count": 0
      },
      "type": "carousel",
      "link": "https://www.instagram.com/p/Bm5uhGDB1SB/",
      "location": null,
      "attribution": null,
      "users_in_photo": [],
      "carousel_media": [
        {
          "images": {
            "thumbnail": {
              "width": 150,
              "height": 150,
              "url": "https://scontent.cdninstagram.com/vp/9ed579c8dd1ff04e4b8123de0f6efa64/5CC3E1A2/t51.2885-15/e35/s150x150/39850972_2156100941313087_4017970746113392640_n.jpg?_nc_ht=scontent.cdninstagram.com"
            },
            "low_resolution": {
              "width": 320,
              "height": 320,
              "url": "https://scontent.cdninstagram.com/vp/fe714b9f20feb20de31f0b8f89761269/5CCA24DA/t51.2885-15/e35/s320x320/39850972_2156100941313087_4017970746113392640_n.jpg?_nc_ht=scontent.cdninstagram.com"
            },
            "standard_resolution": {
              "width": 640,
              "height": 640,
              "url": "https://scontent.cdninstagram.com/vp/0ca9d4e461e8503fb5ae38cbfb0d8529/5CDE3427/t51.2885-15/sh0.08/e35/s640x640/39850972_2156100941313087_4017970746113392640_n.jpg?_nc_ht=scontent.cdninstagram.com"
            }
          },
          "users_in_photo": [],
          "type": "image"
        },
        {
          "images": {
            "thumbnail": {
              "width": 150,
              "height": 150,
              "url": "https://scontent.cdninstagram.com/vp/309120dc7f02017b483b533f9a4396ab/5CC27AF6/t51.2885-15/e35/s150x150/39047033_419182481939872_8789871358352818176_n.jpg?_nc_ht=scontent.cdninstagram.com"
            },
            "low_resolution": {
              "width": 320,
              "height": 320,
              "url": "https://scontent.cdninstagram.com/vp/5210a616cd59c81759ff8161c0263f92/5CBCA006/t51.2885-15/e35/s320x320/39047033_419182481939872_8789871358352818176_n.jpg?_nc_ht=scontent.cdninstagram.com"
            },
            "standard_resolution": {
              "width": 640,
              "height": 640,
              "url": "https://scontent.cdninstagram.com/vp/1c9d2f7da7414ac132f9a190122025bb/5CB7E551/t51.2885-15/sh0.08/e35/s640x640/39047033_419182481939872_8789871358352818176_n.jpg?_nc_ht=scontent.cdninstagram.com"
            }
          },
          "users_in_photo": [],
          "type": "image"
        }
      ]
    },
    {
      "id": "1804537574468095088_5742223731",
      "user": {
        "id": "5742223731",
        "full_name": "🙏 GOOD SMILE 🙏",
        "profile_picture": "https://scontent.cdninstagram.com/vp/3cf437a6e8accd8a82f7bdc4412c2040/5CDDB52B/t51.2885-19/s150x150/45803616_912503295615911_2186419592417509376_n.jpg?_nc_ht=scontent.cdninstagram.com",
        "username": "goodsmileofficial"
      },
      "images": {
        "thumbnail": {
          "width": 150,
          "height": 150,
          "url": "https://scontent.cdninstagram.com/vp/ffdd48176a44a678ac168b67440353a7/5CBD8DD7/t51.2885-15/e35/s150x150/34867042_1077075882439405_7510758311520632832_n.jpg?_nc_ht=scontent.cdninstagram.com"
        },
        "low_resolution": {
          "width": 320,
          "height": 320,
          "url": "https://scontent.cdninstagram.com/vp/dcbba68cf6c3db203cacbf368a812e9d/5CFEA9AF/t51.2885-15/e35/s320x320/34867042_1077075882439405_7510758311520632832_n.jpg?_nc_ht=scontent.cdninstagram.com"
        },
        "standard_resolution": {
          "width": 640,
          "height": 640,
          "url": "https://scontent.cdninstagram.com/vp/66f4198f734e1f923cf16714760b987f/5CDED352/t51.2885-15/sh0.08/e35/s640x640/34867042_1077075882439405_7510758311520632832_n.jpg?_nc_ht=scontent.cdninstagram.com"
        }
      },
      "created_time": "1529337663",
      "caption": {
        "id": "17926695139192388",
        "text": "Luck//Ukraine  #music #musicdub #goodtimes #art",
        "created_time": "1529337663",
        "from": {
          "id": "5742223731",
          "full_name": "🙏 GOOD SMILE 🙏",
          "profile_picture": "https://scontent.cdninstagram.com/vp/3cf437a6e8accd8a82f7bdc4412c2040/5CDDB52B/t51.2885-19/s150x150/45803616_912503295615911_2186419592417509376_n.jpg?_nc_ht=scontent.cdninstagram.com",
          "username": "goodsmileofficial"
        }
      },
      "user_has_liked": false,
      "likes": {
        "count": 29
      },
      "tags": [
        "music",
        "art",
        "goodtimes",
        "musicdub"
      ],
      "filter": "Normal",
      "comments": {
        "count": 2
      },
      "type": "image",
      "link": "https://www.instagram.com/p/BkLAVz2BAxw/",
      "location": null,
      "attribution": null,
      "users_in_photo": [
        {
          "user": {
            "username": "goodsmileofficial"
          },
          "position": {
            "x": 0.4506666667,
            "y": 0.5333333333
          }
        }
      ]
    },
    {
      "id": "1751793953147366622_5742223731",
      "user": {
        "id": "5742223731",
        "full_name": "🙏 GOOD SMILE 🙏",
        "profile_picture": "https://scontent.cdninstagram.com/vp/3cf437a6e8accd8a82f7bdc4412c2040/5CDDB52B/t51.2885-19/s150x150/45803616_912503295615911_2186419592417509376_n.jpg?_nc_ht=scontent.cdninstagram.com",
        "username": "goodsmileofficial"
      },
      "images": {
        "thumbnail": {
          "width": 150,
          "height": 150,
          "url": "https://scontent.cdninstagram.com/vp/69c2d421815cf2f62e62a31c84690eb3/5CFE3038/t51.2885-15/e35/s150x150/29715947_219003898851750_5682710828936069120_n.jpg?_nc_ht=scontent.cdninstagram.com"
        },
        "low_resolution": {
          "width": 320,
          "height": 320,
          "url": "https://scontent.cdninstagram.com/vp/3207dc6f62c38d49cc3136d63fbbba0d/5CCB8CC8/t51.2885-15/e35/s320x320/29715947_219003898851750_5682710828936069120_n.jpg?_nc_ht=scontent.cdninstagram.com"
        },
        "standard_resolution": {
          "width": 640,
          "height": 640,
          "url": "https://scontent.cdninstagram.com/vp/625c167f270d7fac3b817262c3ca3d8e/5CD4579F/t51.2885-15/sh0.08/e35/s640x640/29715947_219003898851750_5682710828936069120_n.jpg?_nc_ht=scontent.cdninstagram.com"
        }
      },
      "created_time": "1523050134",
      "caption": {
        "id": "17935401745018336",
        "text": "It’s Fucking Art.\nHELL YEA!\n\n#good #smile #art #666 #goodsmilemusic #music #dubstep",
        "created_time": "1523050134",
        "from": {
          "id": "5742223731",
          "full_name": "🙏 GOOD SMILE 🙏",
          "profile_picture": "https://scontent.cdninstagram.com/vp/3cf437a6e8accd8a82f7bdc4412c2040/5CDDB52B/t51.2885-19/s150x150/45803616_912503295615911_2186419592417509376_n.jpg?_nc_ht=scontent.cdninstagram.com",
          "username": "goodsmileofficial"
        }
      },
      "user_has_liked": false,
      "likes": {
        "count": 60
      },
      "tags": [
        "music",
        "666",
        "dubstep",
        "good",
        "smile",
        "art",
        "goodsmilemusic"
      ],
      "filter": "Normal",
      "comments": {
        "count": 4
      },
      "type": "image",
      "link": "https://www.instagram.com/p/BhPn1GpBqze/",
      "location": null,
      "attribution": null,
      "users_in_photo": []
    },
    {
      "id": "1733612698817456989_5742223731",
      "user": {
        "id": "5742223731",
        "full_name": "🙏 GOOD SMILE 🙏",
        "profile_picture": "https://scontent.cdninstagram.com/vp/3cf437a6e8accd8a82f7bdc4412c2040/5CDDB52B/t51.2885-19/s150x150/45803616_912503295615911_2186419592417509376_n.jpg?_nc_ht=scontent.cdninstagram.com",
        "username": "goodsmileofficial"
      },
      "images": {
        "thumbnail": {
          "width": 150,
          "height": 150,
          "url": "https://scontent.cdninstagram.com/vp/cf0fee750043a6582423def9fbcc10d2/5CDCB7F2/t51.2885-15/e35/s150x150/28435905_160844167947355_54465120230703104_n.jpg?_nc_ht=scontent.cdninstagram.com"
        },
        "low_resolution": {
          "width": 320,
          "height": 320,
          "url": "https://scontent.cdninstagram.com/vp/3233cb8c3eeea8557175d9958f75a7fd/5CCA970C/t51.2885-15/e35/s320x320/28435905_160844167947355_54465120230703104_n.jpg?_nc_ht=scontent.cdninstagram.com"
        },
        "standard_resolution": {
          "width": 640,
          "height": 640,
          "url": "https://scontent.cdninstagram.com/vp/e45cf17e648fcc38fe4e5c6c53a9a3b1/5CFDF1B9/t51.2885-15/sh0.08/e35/s640x640/28435905_160844167947355_54465120230703104_n.jpg?_nc_ht=scontent.cdninstagram.com"
        }
      },
      "created_time": "1520882759",
      "caption": {
        "id": "17869169275218708",
        "text": "#art #good #smile #music #riddim #dubstep #musicdub",
        "created_time": "1520882759",
        "from": {
          "id": "5742223731",
          "full_name": "🙏 GOOD SMILE 🙏",
          "profile_picture": "https://scontent.cdninstagram.com/vp/3cf437a6e8accd8a82f7bdc4412c2040/5CDDB52B/t51.2885-19/s150x150/45803616_912503295615911_2186419592417509376_n.jpg?_nc_ht=scontent.cdninstagram.com",
          "username": "goodsmileofficial"
        }
      },
      "user_has_liked": false,
      "likes": {
        "count": 59
      },
      "tags": [
        "riddim",
        "musicdub",
        "music",
        "dubstep",
        "good",
        "smile",
        "art"
      ],
      "filter": "Normal",
      "comments": {
        "count": 3
      },
      "type": "image",
      "link": "https://www.instagram.com/p/BgPB5CDHutd/",
      "location": null,
      "attribution": null,
      "users_in_photo": []
    },
    {
      "id": "1724845957199147772_5742223731",
      "user": {
        "id": "5742223731",
        "full_name": "🙏 GOOD SMILE 🙏",
        "profile_picture": "https://scontent.cdninstagram.com/vp/3cf437a6e8accd8a82f7bdc4412c2040/5CDDB52B/t51.2885-19/s150x150/45803616_912503295615911_2186419592417509376_n.jpg?_nc_ht=scontent.cdninstagram.com",
        "username": "goodsmileofficial"
      },
      "images": {
        "thumbnail": {
          "width": 150,
          "height": 150,
          "url": "https://scontent.cdninstagram.com/vp/306d8649b38a289fcbf11ea03ecdb900/5CD29051/t51.2885-15/e35/s150x150/28428496_584096431924751_5235528622307016704_n.jpg?_nc_ht=scontent.cdninstagram.com"
        },
        "low_resolution": {
          "width": 320,
          "height": 320,
          "url": "https://scontent.cdninstagram.com/vp/65226bb85cc2216f1fc99db6eff2f2d4/5CCD8CA1/t51.2885-15/e35/s320x320/28428496_584096431924751_5235528622307016704_n.jpg?_nc_ht=scontent.cdninstagram.com"
        },
        "standard_resolution": {
          "width": 640,
          "height": 640,
          "url": "https://scontent.cdninstagram.com/vp/ef38963551302d89dd3e696cff138b88/5CBBD7F6/t51.2885-15/sh0.08/e35/s640x640/28428496_584096431924751_5235528622307016704_n.jpg?_nc_ht=scontent.cdninstagram.com"
        }
      },
      "created_time": "1519837682",
      "caption": {
        "id": "17849745649246878",
        "text": "Make It Bun Dem  #skrillex #owsla #musicdub",
        "created_time": "1519837682",
        "from": {
          "id": "5742223731",
          "full_name": "🙏 GOOD SMILE 🙏",
          "profile_picture": "https://scontent.cdninstagram.com/vp/3cf437a6e8accd8a82f7bdc4412c2040/5CDDB52B/t51.2885-19/s150x150/45803616_912503295615911_2186419592417509376_n.jpg?_nc_ht=scontent.cdninstagram.com",
          "username": "goodsmileofficial"
        }
      },
      "user_has_liked": false,
      "likes": {
        "count": 60
      },
      "tags": [
        "skrillex",
        "musicdub",
        "owsla"
      ],
      "filter": "Normal",
      "comments": {
        "count": 9
      },
      "type": "image",
      "link": "https://www.instagram.com/p/Bfv4kJrH7L8/",
      "location": null,
      "attribution": null,
      "users_in_photo": [
        {
          "user": {
            "username": "skrillex"
          },
          "position": {
            "x": 0.5533333421000001,
            "y": 0.5226666927
          }
        },
        {
          "user": {
            "username": "owsla"
          },
          "position": {
            "x": 0.5594017094,
            "y": 0.9533333333
          }
        },
        {
          "user": {
            "username": "goodsmileofficial"
          },
          "position": {
            "x": 0.3106666803,
            "y": 0.5253333449
          }
        },
        {
          "user": {
            "username": "musicdubrecordlabel"
          },
          "position": {
            "x": 0.45559707400000005,
            "y": 0.9493333333
          }
        }
      ]
    },
    {
      "id": "1678613951591290303_5742223731",
      "user": {
        "id": "5742223731",
        "full_name": "🙏 GOOD SMILE 🙏",
        "profile_picture": "https://scontent.cdninstagram.com/vp/3cf437a6e8accd8a82f7bdc4412c2040/5CDDB52B/t51.2885-19/s150x150/45803616_912503295615911_2186419592417509376_n.jpg?_nc_ht=scontent.cdninstagram.com",
        "username": "goodsmileofficial"
      },
      "images": {
        "thumbnail": {
          "width": 150,
          "height": 150,
          "url": "https://scontent.cdninstagram.com/vp/a8850edc1f77447468285b72b164d14f/5CBFF318/t51.2885-15/e35/s150x150/25018152_161254171311792_4416117147915255808_n.jpg?_nc_ht=scontent.cdninstagram.com"
        },
        "low_resolution": {
          "width": 320,
          "height": 320,
          "url": "https://scontent.cdninstagram.com/vp/e7ee1bf1c43c7208e905260074e5df54/5CBA22E8/t51.2885-15/e35/s320x320/25018152_161254171311792_4416117147915255808_n.jpg?_nc_ht=scontent.cdninstagram.com"
        },
        "standard_resolution": {
          "width": 640,
          "height": 640,
          "url": "https://scontent.cdninstagram.com/vp/be10fefb68dd37ffd2301c83747546c3/5CBA2DBF/t51.2885-15/sh0.08/e35/s640x640/25018152_161254171311792_4416117147915255808_n.jpg?_nc_ht=scontent.cdninstagram.com"
        }
      },
      "created_time": "1514326398",
      "caption": {
        "id": "17888026672159485",
        "text": "MUSICDUB//HAPPY HOLIDAYS \n#HAPPYHOLIDAYS",
        "created_time": "1514326398",
        "from": {
          "id": "5742223731",
          "full_name": "🙏 GOOD SMILE 🙏",
          "profile_picture": "https://scontent.cdninstagram.com/vp/3cf437a6e8accd8a82f7bdc4412c2040/5CDDB52B/t51.2885-19/s150x150/45803616_912503295615911_2186419592417509376_n.jpg?_nc_ht=scontent.cdninstagram.com",
          "username": "goodsmileofficial"
        }
      },
      "user_has_liked": false,
      "likes": {
        "count": 37
      },
      "tags": [
        "happyholidays"
      ],
      "filter": "Normal",
      "comments": {
        "count": 1
      },
      "type": "image",
      "link": "https://www.instagram.com/p/BdLon7LnRW_/",
      "location": null,
      "attribution": null,
      "users_in_photo": []
    },
    {
      "id": "1660437222032132973_5742223731",
      "user": {
        "id": "5742223731",
        "full_name": "🙏 GOOD SMILE 🙏",
        "profile_picture": "https://scontent.cdninstagram.com/vp/3cf437a6e8accd8a82f7bdc4412c2040/5CDDB52B/t51.2885-19/s150x150/45803616_912503295615911_2186419592417509376_n.jpg?_nc_ht=scontent.cdninstagram.com",
        "username": "goodsmileofficial"
      },
      "images": {
        "thumbnail": {
          "width": 150,
          "height": 150,
          "url": "https://scontent.cdninstagram.com/vp/c317e301346c9a7cc241f5307229e6b9/5CCBE5E6/t51.2885-15/e35/s150x150/25014396_420499015036208_5301577213500456960_n.jpg?_nc_ht=scontent.cdninstagram.com"
        },
        "low_resolution": {
          "width": 320,
          "height": 320,
          "url": "https://scontent.cdninstagram.com/vp/cc9fe21df5828a38c0acc882a93c004d/5CDC2D16/t51.2885-15/e35/s320x320/25014396_420499015036208_5301577213500456960_n.jpg?_nc_ht=scontent.cdninstagram.com"
        },
        "standard_resolution": {
          "width": 640,
          "height": 640,
          "url": "https://scontent.cdninstagram.com/vp/522ad74d682b68c0110b2cacf1ec208c/5CCBCD41/t51.2885-15/sh0.08/e35/s640x640/25014396_420499015036208_5301577213500456960_n.jpg?_nc_ht=scontent.cdninstagram.com"
        }
      },
      "created_time": "1512159563",
      "caption": {
        "id": "17901793504073020",
        "text": "Skull Mexico Art",
        "created_time": "1512159563",
        "from": {
          "id": "5742223731",
          "full_name": "🙏 GOOD SMILE 🙏",
          "profile_picture": "https://scontent.cdninstagram.com/vp/3cf437a6e8accd8a82f7bdc4412c2040/5CDDB52B/t51.2885-19/s150x150/45803616_912503295615911_2186419592417509376_n.jpg?_nc_ht=scontent.cdninstagram.com",
          "username": "goodsmileofficial"
        }
      },
      "user_has_liked": false,
      "likes": {
        "count": 33
      },
      "tags": [],
      "filter": "Normal",
      "comments": {
        "count": 2
      },
      "type": "image",
      "link": "https://www.instagram.com/p/BcLDtsnD8tt/",
      "location": null,
      "attribution": null,
      "users_in_photo": []
    },
    {
      "id": "1652945217194311995_5742223731",
      "user": {
        "id": "5742223731",
        "full_name": "🙏 GOOD SMILE 🙏",
        "profile_picture": "https://scontent.cdninstagram.com/vp/3cf437a6e8accd8a82f7bdc4412c2040/5CDDB52B/t51.2885-19/s150x150/45803616_912503295615911_2186419592417509376_n.jpg?_nc_ht=scontent.cdninstagram.com",
        "username": "goodsmileofficial"
      },
      "images": {
        "thumbnail": {
          "width": 150,
          "height": 150,
          "url": "https://scontent.cdninstagram.com/vp/377151d73932b7fc80d58db98a57b08b/5CFEF18D/t51.2885-15/e35/s150x150/25011078_1655222404556393_3454954572886310912_n.jpg?_nc_ht=scontent.cdninstagram.com"
        },
        "low_resolution": {
          "width": 320,
          "height": 320,
          "url": "https://scontent.cdninstagram.com/vp/67085a0efac005e79cfb0213fe69d16f/5CD280F5/t51.2885-15/e35/s320x320/25011078_1655222404556393_3454954572886310912_n.jpg?_nc_ht=scontent.cdninstagram.com"
        },
        "standard_resolution": {
          "width": 640,
          "height": 640,
          "url": "https://scontent.cdninstagram.com/vp/dffec77a7ecdea59e1e992b6fd652466/5CBD3E08/t51.2885-15/sh0.08/e35/s640x640/25011078_1655222404556393_3454954572886310912_n.jpg?_nc_ht=scontent.cdninstagram.com"
        }
      },
      "created_time": "1511266446",
      "caption": {
        "id": "17896253485103961",
        "text": "4 Hours Work.",
        "created_time": "1511266446",
        "from": {
          "id": "5742223731",
          "full_name": "🙏 GOOD SMILE 🙏",
          "profile_picture": "https://scontent.cdninstagram.com/vp/3cf437a6e8accd8a82f7bdc4412c2040/5CDDB52B/t51.2885-19/s150x150/45803616_912503295615911_2186419592417509376_n.jpg?_nc_ht=scontent.cdninstagram.com",
          "username": "goodsmileofficial"
        }
      },
      "user_has_liked": false,
      "likes": {
        "count": 22
      },
      "tags": [],
      "filter": "Normal",
      "comments": {
        "count": 0
      },
      "type": "image",
      "link": "https://www.instagram.com/p/BbwcOrYDEE7/",
      "location": null,
      "attribution": null,
      "users_in_photo": []
    },
    {
      "id": "1649263989148787933_5742223731",
      "user": {
        "id": "5742223731",
        "full_name": "🙏 GOOD SMILE 🙏",
        "profile_picture": "https://scontent.cdninstagram.com/vp/3cf437a6e8accd8a82f7bdc4412c2040/5CDDB52B/t51.2885-19/s150x150/45803616_912503295615911_2186419592417509376_n.jpg?_nc_ht=scontent.cdninstagram.com",
        "username": "goodsmileofficial"
      },
      "images": {
        "thumbnail": {
          "width": 150,
          "height": 150,
          "url": "https://scontent.cdninstagram.com/vp/ba432a3e5d45845ffe94cf62bad74175/5CD4191D/t51.2885-15/e35/s150x150/24838318_304118946761796_3292014929699143680_n.jpg?_nc_ht=scontent.cdninstagram.com"
        },
        "low_resolution": {
          "width": 320,
          "height": 320,
          "url": "https://scontent.cdninstagram.com/vp/b13e67c5ab40aa12140105a2be73a8cf/5CCB15ED/t51.2885-15/e35/s320x320/24838318_304118946761796_3292014929699143680_n.jpg?_nc_ht=scontent.cdninstagram.com"
        },
        "standard_resolution": {
          "width": 640,
          "height": 640,
          "url": "https://scontent.cdninstagram.com/vp/cd0076b63f76408914cf8d41ae6252f0/5CFCDBBA/t51.2885-15/sh0.08/e35/s640x640/24838318_304118946761796_3292014929699143680_n.jpg?_nc_ht=scontent.cdninstagram.com"
        }
      },
      "created_time": "1510827610",
      "caption": {
        "id": "17906883211038502",
        "text": "DarkRed",
        "created_time": "1510827610",
        "from": {
          "id": "5742223731",
          "full_name": "🙏 GOOD SMILE 🙏",
          "profile_picture": "https://scontent.cdninstagram.com/vp/3cf437a6e8accd8a82f7bdc4412c2040/5CDDB52B/t51.2885-19/s150x150/45803616_912503295615911_2186419592417509376_n.jpg?_nc_ht=scontent.cdninstagram.com",
          "username": "goodsmileofficial"
        }
      },
      "user_has_liked": false,
      "likes": {
        "count": 29
      },
      "tags": [],
      "filter": "Normal",
      "comments": {
        "count": 0
      },
      "type": "image",
      "link": "https://www.instagram.com/p/BbjXNwmDqTd/",
      "location": null,
      "attribution": null,
      "users_in_photo": []
    },
    {
      "id": "1645187704105658355_5742223731",
      "user": {
        "id": "5742223731",
        "full_name": "🙏 GOOD SMILE 🙏",
        "profile_picture": "https://scontent.cdninstagram.com/vp/3cf437a6e8accd8a82f7bdc4412c2040/5CDDB52B/t51.2885-19/s150x150/45803616_912503295615911_2186419592417509376_n.jpg?_nc_ht=scontent.cdninstagram.com",
        "username": "goodsmileofficial"
      },
      "images": {
        "thumbnail": {
          "width": 150,
          "height": 150,
          "url": "https://scontent.cdninstagram.com/vp/b9defc05290f55898ec8121b5226ec47/5CBF8C9F/t51.2885-15/e35/s150x150/25022695_135455993793467_8682056770006286336_n.jpg?_nc_ht=scontent.cdninstagram.com"
        },
        "low_resolution": {
          "width": 320,
          "height": 320,
          "url": "https://scontent.cdninstagram.com/vp/6b22f8baf2e1567c468d78e74140dec8/5CC0EF6F/t51.2885-15/e35/s320x320/25022695_135455993793467_8682056770006286336_n.jpg?_nc_ht=scontent.cdninstagram.com"
        },
        "standard_resolution": {
          "width": 640,
          "height": 640,
          "url": "https://scontent.cdninstagram.com/vp/65932b2ce256625a4b3cc32340aea71f/5CCC1D38/t51.2885-15/sh0.08/e35/s640x640/25022695_135455993793467_8682056770006286336_n.jpg?_nc_ht=scontent.cdninstagram.com"
        }
      },
      "created_time": "1510341679",
      "caption": {
        "id": "17849552251202739",
        "text": "Предательство \nProduction by Good  Smile \nКод предательства от меня утаим много видов любви я выбиру агонь по своим докозательства вени осуждающий взор на мир вечери меняют ритм параграфа на крови пакедал зори (Головний куплет)",
        "created_time": "1510341679",
        "from": {
          "id": "5742223731",
          "full_name": "🙏 GOOD SMILE 🙏",
          "profile_picture": "https://scontent.cdninstagram.com/vp/3cf437a6e8accd8a82f7bdc4412c2040/5CDDB52B/t51.2885-19/s150x150/45803616_912503295615911_2186419592417509376_n.jpg?_nc_ht=scontent.cdninstagram.com",
          "username": "goodsmileofficial"
        }
      },
      "user_has_liked": false,
      "likes": {
        "count": 25
      },
      "tags": [],
      "filter": "Normal",
      "comments": {
        "count": 1
      },
      "type": "image",
      "link": "https://www.instagram.com/p/BbU4YAUDufz/",
      "location": null,
      "attribution": null,
      "users_in_photo": []
    },
    {
      "id": "1627808356021244448_5742223731",
      "user": {
        "id": "5742223731",
        "full_name": "🙏 GOOD SMILE 🙏",
        "profile_picture": "https://scontent.cdninstagram.com/vp/3cf437a6e8accd8a82f7bdc4412c2040/5CDDB52B/t51.2885-19/s150x150/45803616_912503295615911_2186419592417509376_n.jpg?_nc_ht=scontent.cdninstagram.com",
        "username": "goodsmileofficial"
      },
      "images": {
        "thumbnail": {
          "width": 150,
          "height": 150,
          "url": "https://scontent.cdninstagram.com/vp/674612b29eb3021bc948d0df9ef6c3e0/5CC0E725/t51.2885-15/e35/s150x150/25009770_136624210316417_3411386214182289408_n.jpg?_nc_ht=scontent.cdninstagram.com"
        },
        "low_resolution": {
          "width": 320,
          "height": 320,
          "url": "https://scontent.cdninstagram.com/vp/16874e12b1d89890f38c6620c2314f78/5CDEA2D5/t51.2885-15/e35/s320x320/25009770_136624210316417_3411386214182289408_n.jpg?_nc_ht=scontent.cdninstagram.com"
        },
        "standard_resolution": {
          "width": 640,
          "height": 640,
          "url": "https://scontent.cdninstagram.com/vp/4330de77d759c8f0f50e671f77d1990a/5CD4ED82/t51.2885-15/sh0.08/e35/s640x640/25009770_136624210316417_3411386214182289408_n.jpg?_nc_ht=scontent.cdninstagram.com"
        }
      },
      "created_time": "1508269899",
      "caption": {
        "id": "17874991939169831",
        "text": "It's FuckIng Fire",
        "created_time": "1508269899",
        "from": {
          "id": "5742223731",
          "full_name": "🙏 GOOD SMILE 🙏",
          "profile_picture": "https://scontent.cdninstagram.com/vp/3cf437a6e8accd8a82f7bdc4412c2040/5CDDB52B/t51.2885-19/s150x150/45803616_912503295615911_2186419592417509376_n.jpg?_nc_ht=scontent.cdninstagram.com",
          "username": "goodsmileofficial"
        }
      },
      "user_has_liked": false,
      "likes": {
        "count": 24
      },
      "tags": [],
      "filter": "Normal",
      "comments": {
        "count": 0
      },
      "type": "image",
      "link": "https://www.instagram.com/p/BaXIxNHDxIg/",
      "location": null,
      "attribution": null,
      "users_in_photo": [
        {
          "user": {
            "username": "musicdubrecordlabel"
          },
          "position": {
            "x": 0.5044695,
            "y": 0.8751443600000001
          }
        }
      ]
    },
    {
      "id": "1604600415822806233_5742223731",
      "user": {
        "id": "5742223731",
        "full_name": "🙏 GOOD SMILE 🙏",
        "profile_picture": "https://scontent.cdninstagram.com/vp/3cf437a6e8accd8a82f7bdc4412c2040/5CDDB52B/t51.2885-19/s150x150/45803616_912503295615911_2186419592417509376_n.jpg?_nc_ht=scontent.cdninstagram.com",
        "username": "goodsmileofficial"
      },
      "images": {
        "thumbnail": {
          "width": 150,
          "height": 150,
          "url": "https://scontent.cdninstagram.com/vp/da04c08d1cf2dc5b4d5328d1b63a44fc/5CC5A189/t51.2885-15/e35/s150x150/25013265_390816871343323_8762966802742378496_n.jpg?_nc_ht=scontent.cdninstagram.com"
        },
        "low_resolution": {
          "width": 320,
          "height": 320,
          "url": "https://scontent.cdninstagram.com/vp/e51d6288e115b1ef5f206b65dab0a182/5CDD0D79/t51.2885-15/e35/s320x320/25013265_390816871343323_8762966802742378496_n.jpg?_nc_ht=scontent.cdninstagram.com"
        },
        "standard_resolution": {
          "width": 640,
          "height": 640,
          "url": "https://scontent.cdninstagram.com/vp/d1b12ef5462ef00e2201af216ab88aba/5CCC842E/t51.2885-15/sh0.08/e35/s640x640/25013265_390816871343323_8762966802742378496_n.jpg?_nc_ht=scontent.cdninstagram.com"
        }
      },
      "created_time": "1505503297",
      "caption": null,
      "user_has_liked": true,
      "likes": {
        "count": 21
      },
      "tags": [],
      "filter": "Normal",
      "comments": {
        "count": 0
      },
      "type": "image",
      "link": "https://www.instagram.com/p/BZEr5Ofj_zZ/",
      "location": null,
      "attribution": null,
      "users_in_photo": []
    },
    {
      "id": "1571877810589686206_5742223731",
      "user": {
        "id": "5742223731",
        "full_name": "🙏 GOOD SMILE 🙏",
        "profile_picture": "https://scontent.cdninstagram.com/vp/3cf437a6e8accd8a82f7bdc4412c2040/5CDDB52B/t51.2885-19/s150x150/45803616_912503295615911_2186419592417509376_n.jpg?_nc_ht=scontent.cdninstagram.com",
        "username": "goodsmileofficial"
      },
      "images": {
        "thumbnail": {
          "width": 150,
          "height": 150,
          "url": "https://scontent.cdninstagram.com/vp/6ed24322f8c3fecc5e6c1130b7ee7a47/5CC31B1A/t51.2885-15/e35/s150x150/25013680_153847342007122_1703629014528163840_n.jpg?_nc_ht=scontent.cdninstagram.com"
        },
        "low_resolution": {
          "width": 320,
          "height": 320,
          "url": "https://scontent.cdninstagram.com/vp/3ec4409fa3aceb6aae10430004906242/5CDE1AEA/t51.2885-15/e35/s320x320/25013680_153847342007122_1703629014528163840_n.jpg?_nc_ht=scontent.cdninstagram.com"
        },
        "standard_resolution": {
          "width": 640,
          "height": 640,
          "url": "https://scontent.cdninstagram.com/vp/40ffa2cdbc1ffc80bc6b7e9847775e82/5CCD2CBD/t51.2885-15/sh0.08/e35/s640x640/25013680_153847342007122_1703629014528163840_n.jpg?_nc_ht=scontent.cdninstagram.com"
        }
      },
      "created_time": "1501602458",
      "caption": {
        "id": "17891422351030223",
        "text": "MusicDub Family \n#flag\nDon't be afraid to stand out. Be with us.",
        "created_time": "1501602458",
        "from": {
          "id": "5742223731",
          "full_name": "🙏 GOOD SMILE 🙏",
          "profile_picture": "https://scontent.cdninstagram.com/vp/3cf437a6e8accd8a82f7bdc4412c2040/5CDDB52B/t51.2885-19/s150x150/45803616_912503295615911_2186419592417509376_n.jpg?_nc_ht=scontent.cdninstagram.com",
          "username": "goodsmileofficial"
        }
      },
      "user_has_liked": false,
      "likes": {
        "count": 7
      },
      "tags": [
        "flag"
      ],
      "filter": "Normal",
      "comments": {
        "count": 0
      },
      "type": "carousel",
      "link": "https://www.instagram.com/p/BXQbopihFm-/",
      "location": null,
      "attribution": null,
      "users_in_photo": [
        {
          "user": {
            "username": "musicdubrecordlabel"
          },
          "position": {
            "x": 0.39685476000000003,
            "y": 0.6921264500000001
          }
        }
      ],
      "carousel_media": [
        {
          "images": {
            "thumbnail": {
              "width": 150,
              "height": 150,
              "url": "https://scontent.cdninstagram.com/vp/6ed24322f8c3fecc5e6c1130b7ee7a47/5CC31B1A/t51.2885-15/e35/s150x150/25013680_153847342007122_1703629014528163840_n.jpg?_nc_ht=scontent.cdninstagram.com"
            },
            "low_resolution": {
              "width": 320,
              "height": 320,
              "url": "https://scontent.cdninstagram.com/vp/3ec4409fa3aceb6aae10430004906242/5CDE1AEA/t51.2885-15/e35/s320x320/25013680_153847342007122_1703629014528163840_n.jpg?_nc_ht=scontent.cdninstagram.com"
            },
            "standard_resolution": {
              "width": 640,
              "height": 640,
              "url": "https://scontent.cdninstagram.com/vp/40ffa2cdbc1ffc80bc6b7e9847775e82/5CCD2CBD/t51.2885-15/sh0.08/e35/s640x640/25013680_153847342007122_1703629014528163840_n.jpg?_nc_ht=scontent.cdninstagram.com"
            }
          },
          "users_in_photo": [
            {
              "user": {
                "username": "musicdubrecordlabel"
              },
              "position": {
                "x": 0.39685476000000003,
                "y": 0.6921264500000001
              }
            }
          ],
          "type": "image"
        },
        {
          "images": {
            "thumbnail": {
              "width": 150,
              "height": 150,
              "url": "https://scontent.cdninstagram.com/vp/9c9c469dd0b6fc0095c6ab5caaf5e3d6/5CDC97DF/t51.2885-15/e35/s150x150/25022268_2102647833354760_5772069646458945536_n.jpg?_nc_ht=scontent.cdninstagram.com"
            },
            "low_resolution": {
              "width": 320,
              "height": 320,
              "url": "https://scontent.cdninstagram.com/vp/fb45b660d29c922212c9c9eee7e143a7/5CBC5EA7/t51.2885-15/e35/s320x320/25022268_2102647833354760_5772069646458945536_n.jpg?_nc_ht=scontent.cdninstagram.com"
            },
            "standard_resolution": {
              "width": 640,
              "height": 640,
              "url": "https://scontent.cdninstagram.com/vp/27281fbdda15783d1ad1dac16c1baefd/5CC5B55A/t51.2885-15/sh0.08/e35/s640x640/25022268_2102647833354760_5772069646458945536_n.jpg?_nc_ht=scontent.cdninstagram.com"
            }
          },
          "users_in_photo": [],
          "type": "image"
        }
      ]
    }
  ],
  "meta": {
    "code": 200
  }
}